<?xml version="1.0"?>
<robot name="visual">

<material name="grey">
    <color rgba="171 183 183 1)"/>
  </material>
  <material name="black">
    <color rgba="0 0 0 1"/>
  </material>


  <link name="base_link">
    <visual>
      <geometry>
        <cylinder length="0.4" radius="0.2"/>
      </geometry>
      <origin rpy="0 1.57075 0" />
      <material name="black"/>
    </visual>
  </link>
